{
  "nome": "Mapa da Morte",
  "pontos": 100,
  "mapa": [
    {
      "aposento": "hall",
      "fantasma": 100,
      "ligacoes": [
        "entrada",
        "sala",
        "cozinha"
      ]
    },
    {
      "aposento": "sala",
      "fantasma": 0,
      "ligacoes": [
        "hall",
        "wc",
        "quartoA"
      ]
    },
    {
      "aposento": "wc",
      "fantasma": 0,
      "ligacoes": [
        "sala"
      ]
    },
    {
      "aposento": "cozinha",
      "fantasma": 15,
      "ligacoes": [
        "hall",
        "quartoC"
      ]
    },
    {
      "aposento": "corredor",
      "fantasma": 0,
      "ligacoes": [
        "exterior",
        "quartoA",
        "quartoB"
      ]
    },
    {
      "aposento": "quartoA",
      "fantasma": 15,
      "ligacoes": [
        "exterior",
        "corredor",
        "sala"
      ]
    },
    {
      "aposento": "quartoB",
      "fantasma": 15,
      "ligacoes": [
        "exterior",
        "corredor",
        "quartoC"
      ]
    },
    {
      "aposento": "quartoC",
      "fantasma": 0,
      "ligacoes": [
        "quartoB",
        "cozinha"
      ]
    }
  ]
}